// Jest Snapshot v1, https://goo.gl/fbAQLP

exports[`Button HTML structure renders correctly with build-in effect 1`] = `
<button
  class="button_1i9fly  flat_1i9fly"
>
  test
</button>
`;

exports[`Button HTML structure renders correctly with build-in effect 2`] = `
<button
  class="button_1i9fly  flat_1i9fly"
>
  <span
    class="ripple_2iENbi"
  />
  test
</button>
`;
